Üniversite Sayısının İstihdam ve İşsizliğe Etkisi – Tuncay Ozkardes’s Analytics Lab
…
Üniversite verisinde ilk satırı (başlığı) atalım. 2. Sütun ismini Kurulus_Yili olarak değiştirelim. Daha sonra gg.aa.yy formatındaki tarihin sadece yıl kısmını alalım. Son olarak mezun verebileceği yılları yan sütuna kaydedelim.

universiteler <- universiteler_raw[-1, ] %>%
  select(Kurulus_Yili = ...2) %>%
  mutate(Kurulus_Yili = as.numeric(substr(Kurulus_Yili, 7, 10)))

universiteler <- universiteler %>%
  mutate(Mezun_Verebilecegi_Yil = Kurulus_Yili + 4)

print(universiteler)

# A tibble: 208 × 2
   Kurulus_Yili Mezun_Verebilecegi_Yil
          <dbl>                  <dbl>
 1         2010                   2014
 2         2007                   2011
 3         2011                   2015
 4         2006                   2010
 5         1992                   1996
 6         2018                   2022
 7         2007                   2011
 8         1982                   1986
 9         2006                   2010
10         2015                   2019
# ℹ 198 more rows
…
#1988 yılındaki üniversite sayısına 1988 ve öncesindeki mezun verebilecek üniversite sayısını eklemeliyiz.

uni_sayisi <- uni_sayisi %>%
  mutate(mezun_verebilecek_uni_sayisi = ifelse(Yil == 1988, mezun_verebilecek_uni_sayisi + ilk_toplam, mezun_verebilecek_uni_sayisi))

#Kümülatif olarak artacağı için cusum kullanacağız.
uni_sayisi <- uni_sayisi %>%
  mutate(kumulatif_mezun_verebilecek_uni_sayisi = cumsum(mezun_verebilecek_uni_sayisi))

print(uni_sayisi)

# A tibble: 28 × 3
     Yil mezun_verebilecek_uni_sayisi kumulatif_mezun_verebilecek_uni_sayisi
   <dbl>                        <dbl>                                  <dbl>
 1  1988                           27                                     27
 2  1989                            1                                     28
 3  1991                            1                                     29
 4  1996                           24                                     53
 5  1997                            1                                     54
 6  1998                            2                                     56
 7  2000                            4                                     60
 8  2001                            8                                     68
 9  2002                            2                                     70
10  2003                            2                                     72
# ℹ 18 more rows
…
2018’den sonraki koronavirüs dönemindeki düşüşü gördünüz mü!

Şimdi Tidyr kullanarak işsizlik datasını long hale çevirelim ve normal/long hani arasındaki farkları görelim.

issizlik_long <- issizlik %>%
  pivot_longer(
    cols = -Yil,
    names_to = "Egitim_Durumu",
    values_to = "Issizlik_Orani"
  )
print(issizlik)

# A tibble: 37 × 8
     Yil `Okuma-yazma bilmeyen` Okuma yazma bilen fakat bir okul bitir…¹ İlkokul
   <dbl>                  <dbl>                                    <dbl>   <dbl>
 1  2024                    4.4                                      9.7     6  
 2  2023                    5.1                                      9.9     6.5
 3  2022                    6.2                                     10.6     7.4
 4  2021                    8.2                                     13.8     8.8
 5  2020                    9.1                                     15.6    10.1
 6  2019                    9.2                                     14.4    10.9
 7  2018                    5.8                                     11.5     8.5
 8  2017                    5.8                                     11.6     8.1
 9  2016                    5.7                                     11.7     8.5
10  2015                    5.3                                     11.5     8.2
# ℹ 27 more rows
# ℹ abbreviated name: ¹​`Okuma yazma bilen fakat bir okul bitirmeyen`
# ℹ 4 more variables: `Ortaokul veya dengi meslek okul` <dbl>,
#   `Genel lise` <dbl>, `Lise dengi meslek okul` <dbl>,
#   `Yüksekokul veya fakülte` <dbl>

print(issizlik_long)

# A tibble: 259 × 3
     Yil Egitim_Durumu                               Issizlik_Orani
   <dbl> <chr>                                                <dbl>
 1  2024 Okuma-yazma bilmeyen                                   4.4
 2  2024 Okuma yazma bilen fakat bir okul bitirmeyen            9.7
 3  2024 İlkokul                                                6  
 4  2024 Ortaokul veya dengi meslek okul                        9.3
 5  2024 Genel lise                                            11.1
 6  2024 Lise dengi meslek okul                                 9.5
 7  2024 Yüksekokul veya fakülte                                9.1
 8  2023 Okuma-yazma bilmeyen                                   5.1
 9  2023 Okuma yazma bilen fakat bir okul bitirmeyen            9.9
10  2023 İlkokul                                                6.5
# ℹ 249 more rows
…
